﻿№ технологической операции;Объем работы (условных единиц);Дата начала;Дата завершения;Норма выработки, в смену (смена 7 часов)
1;220;01.05.2020;05.05.2020;12
2;250;01.05.2020;07.05.2020;10
3;200;04.05.2020;08.05.2020;15
4;240;07.05.2020;10.05.2020;12
5;300;10.05.2020;11.05.2020;50
6;150;08.05.2020;12.05.2020;8
